…
Using dplyr
=========================


```r
library(dplyr)  # data wrangling tool of choice
flights <- tbl_df(hflights)  # make a copy
flights
```

```
# A tibble: 227,496 x 21
    Year Month DayofMonth DayOfWeek DepTime ArrTime UniqueCarrier
 * <int> <int>      <int>     <int>   <int>   <int> <chr>        
 1  2011     1          1         6    1400    1500 AA           
 2  2011     1          2         7    1401    1501 AA           
 3  2011     1          3         1    1352    1502 AA           
 4  2011     1          4         2    1403    1513 AA           
 5  2011     1          5         3    1405    1507 AA           
 6  2011     1          6         4    1359    1503 AA           
 7  2011     1          7         5    1359    1509 AA           
 8  2011     1          8         6    1355    1454 AA           
 9  2011     1          9         7    1443    1554 AA           
10  2011     1         10         1    1443    1553 AA           
# ... with 227,486 more rows, and 14 more variables: FlightNum <int>,
#   TailNum <chr>, ActualElapsedTime <int>, AirTime <int>, ArrDelay <int>,
#   DepDelay <int>, Origin <chr>, Dest <chr>, Distance <int>,
#   TaxiIn <int>, TaxiOut <int>, Cancelled <int>, CancellationCode <chr>,
#   Diverted <int>
```
…
